-------------------------------------------
Assignment 1 Part B Checklist/Grading sheet
-------------------------------------------

Name:       ____Nitin Guleria________________

Student ID:  ____1000900288________________

------------------------------------------------------------------------------
A. PLEASE ANSWER THE FOLLOWING QUESTIONS (your assignment will not be graded
   otherwise!)

  
1. I verify that I completed this assignment according to the 
   Student Academic Integrity policy stated at
   http://www.artsci.utoronto.ca/osai/students/academic-integrity-basics

   Yes 


2. I collaborated on this assignment with another student 

      No

   If you checked yes, please supply the following

       Student name: 
       Portion(s) of assignment completed by that student (see checklist below)

------------------------------------------------------------------------------

B. PLACE AN (X) IN FRONT OF PORTIONS OF THE ASSIGNMENT THAT YOU COMPLETED IN
   FULL.
   
   If a portion of the assignment was not completed fully, please provide
   additional information so that we can determine whether or not you are
   eligible for partial credit. THE MORE INFORMATION YOU SUPPLY (EG. FILE WHICH
   CONTAINS PARTIAL CODE, FUNCTION NAME, ETC, SUGGESTIONS ON WHERE AND WHAT TO
   LOOK FOR IN YOUR PARTIAL IMPLEMENTATION, DETAILED COMMENTS IN YOUR CODE,
   ETC) THE MORE LIKELY IT IS WE WILL BE ABLE TO MAKE AN ACCURATE ASSESSMENT

   
_X__ ( 5 marks) Part 2a  Parts description & drawing
                  
__X_ (10 marks) Part 2b  Parts transformation description & implementation

_X__ ( 8 marks) Part 2c  Animation control functions description & implementation

__X_ (15 marks) Part 2d  Hierarchical object rendering 
                  
__X_ ( 2 marks) Part 2e  Joint drawing

__X_ (10 marks) Part 2f  Written report

-------------------------------------------------------------------------------
